<svg width="28" height="28" viewBox="0 0 28 28" fill="none" xmlns="http://www.w3.org/2000/svg">
<path fill-rule="evenodd" clip-rule="evenodd" d="M12.833 4.66658C8.32268 4.66658 4.66634 8.32293 4.66634 12.8333C4.66634 17.3436 8.32268 20.9999 12.833 20.9999C17.3433 20.9999 20.9997 17.3436 20.9997 12.8333C20.9997 8.32293 17.3433 4.66658 12.833 4.66658ZM2.33301 12.8333C2.33301 7.03426 7.03402 2.33325 12.833 2.33325C18.632 2.33325 23.333 7.03426 23.333 12.8333C23.333 18.6322 18.632 23.3332 12.833 23.3332C7.03402 23.3332 2.33301 18.6322 2.33301 12.8333Z" fill="white"/>
<path fill-rule="evenodd" clip-rule="evenodd" d="M18.6005 18.6C19.0561 18.1444 19.7948 18.1444 20.2504 18.6L25.3254 23.675C25.781 24.1306 25.781 24.8693 25.3254 25.3249C24.8698 25.7805 24.1311 25.7805 23.6755 25.3249L18.6005 20.2499C18.1449 19.7943 18.1449 19.0556 18.6005 18.6Z" fill="white"/>
</svg>
